{
  "project_info": {
    "project_number": "336409947086",
    "firebase_url": "https://fir-prac-72981.firebaseio.com",
    "project_id": "fir-prac-72981",
    "storage_bucket": "fir-prac-72981.appspot.com"
  },
  "client": [
    {
      "client_info": {
        "mobilesdk_app_id": "1:336409947086:android:ff0f8b72eea0900b92199f",
        "android_client_info": {
          "package_name": "com.example.firebase"
        }
      },
      "oauth_client": [
        {
          "client_id": "336409947086-b3374i509161ihu6164e746mrtbf6si2.apps.googleusercontent.com",
          "client_type": 3
        }
      ],
      "api_key": [
        {
          "current_key": "AIzaSyBCB2DbQTVXfX6Z0ywfNBWNuwX4BbTCulQ"
        }
      ],
      "services": {
        "appinvite_service": {
          "other_platform_oauth_client": [
            {
              "client_id": "336409947086-b3374i509161ihu6164e746mrtbf6si2.apps.googleusercontent.com",
              "client_type": 3
            }
          ]
        }
      }
    }
  ],
  "configuration_version": "1"
}